…
---
## The data

```r
library(plotly)
library(tidyverse)
  
covid <- read_csv("https://covidtracking.com/api/v1/states/daily.csv") %>%
  mutate(date = lubridate::ymd(as.character(date)))
  
select(covid, date, deathIncrease, state)
```

```r
# A tibble: 7,857 x 3
   date       deathIncrease state
   <date>             <dbl> <chr>
 1 2020-07-23             0 AK   
 2 2020-07-23            33 AL   
 3 2020-07-23             6 AR   
 4 2020-07-23             0 AS   
 5 2020-07-23            89 AZ   
 6 2020-07-23           157 CA   
 7 2020-07-23             0 CO   
 8 2020-07-23             4 CT   
 9 2020-07-23             1 DC   
10 2020-07-23             2 DE   
# … with 7,847 more rows
```
…
