R for Interactive Data Visualization
…
* As a **ggplot2** user, all you _really_ need to provide is 1, 2, and 3. Everything thing else has smart defaults.

* Helps minimize the cognitive burden, especially during the iteration phase.
]

---
class: middle, inverse

### Let's start with some toy data on cars

R comes with some useful toy datasets (e.g., `mtcars`):

```
#> # A tibble: 32 x 5
#>    name                 wt   mpg am          cyl
#>    <chr>             <dbl> <dbl> <chr>     <dbl>
#>  1 Mazda RX4          2.62  21   manual        6
#>  2 Mazda RX4 Wag      2.88  21   manual        6
#>  3 Datsun 710         2.32  22.8 manual        4
#>  4 Hornet 4 Drive     3.22  21.4 automatic     6
#>  5 Hornet Sportabout  3.44  18.7 automatic     8
#>  6 Valiant            3.46  18.1 automatic     6
#>  7 Duster 360         3.57  14.3 automatic     8
#>  8 Merc 240D          3.19  24.4 automatic     4
#>  9 Merc 230           3.15  22.8 automatic     4
#> 10 Merc 280           3.44  19.2 automatic     6
#> # … with 22 more rows
```
…
---
## The data

```r
library(plotly)
library(tidyverse)
  
covid <- read_csv("https://covidtracking.com/api/v1/states/daily.csv") %>%
  mutate(date = lubridate::ymd(as.character(date)))
  
select(covid, date, deathIncrease, state)
```

```r
# A tibble: 7,857 x 3
   date       deathIncrease state
   <date>             <dbl> <chr>
 1 2020-07-23             0 AK   
 2 2020-07-23            33 AL   
 3 2020-07-23             6 AR   
 4 2020-07-23             0 AS   
 5 2020-07-23            89 AZ   
 6 2020-07-23           157 CA   
 7 2020-07-23             0 CO   
 8 2020-07-23             4 CT   
 9 2020-07-23             1 DC   
10 2020-07-23             2 DE   
# … with 7,847 more rows
```
…
.pull-right[
<img src="shiny-plotly-y.gif" width="100%" >
]

---
### shiny: Interactive webapps in R

.pull-left[
```r
diamonds
```

```r
# A tibble: 53,940 x 6
   carat cut       color clarity depth price
   <dbl> <ord>     <ord> <ord>   <dbl> <int>
 1 0.23  Ideal     E     SI2      61.5   326
 2 0.21  Premium   E     SI1      59.8   326
 3 0.23  Good      E     VS1      56.9   327
 4 0.290 Premium   I     VS2      62.4   334
 5 0.31  Good      J     SI2      63.3   335
 6 0.24  Very Good J     VVS2     62.8   336
 7 0.24  Very Good I     VVS1     62.3   336
 8 0.26  Very Good H     SI1      61.9   337
 9 0.22  Fair      E     VS2      65.1   337
10 0.23  Very Good H     VS1      59.4   338
# … with 53,930 more rows
```
…
