…
```{r, echo = FALSE, eval = TRUE}
include_vimeo("328763167")
```

---
# The sales dataset

.pull-left[
```{r}
sales <- readr::read_csv("data/sales.csv")
select(sales, category, sub_category, sales)
#> # A tibble: 9,994 x 3
#>    category        sub_category  sales
#>    <chr>           <chr>         <dbl>
#>  1 Furniture       Bookcases    262.  
#>  2 Furniture       Chairs       732.  
#>  3 Office Supplies Labels        14.6 
#>  4 Furniture       Tables       958.  
#>  5 Office Supplies Storage       22.4 
#>  6 Furniture       Furnishings   48.9 
#>  7 Office Supplies Art            7.28
#>  8 Technology      Phones       907.  
#>  9 Office Supplies Binders       18.5 
#> 10 Office Supplies Appliances   115.  
#> # … with 9,984 more rows
```
…
