Animation and linking views via plotly, crosstalk, and shiny
…
---

<img src='../nycds.png' class='nycds' />

## Monthly housing sales

```r
library(plotly)
txhousing
#> # A tibble: 8,602 x 9
#>       city  year month sales   volume median listings inventory     date
#>      <chr> <int> <int> <dbl>    <dbl>  <dbl>    <dbl>     <dbl>    <dbl>
#>  1 Abilene  2000     1    72  5380000  71400      701       6.3 2000.000
#>  2 Abilene  2000     2    98  6505000  58700      746       6.6 2000.083
#>  3 Abilene  2000     3   130  9285000  58100      784       6.8 2000.167
#>  4 Abilene  2000     4    98  9730000  68600      785       6.9 2000.250
#>  5 Abilene  2000     5   141 10590000  67300      794       6.8 2000.333
#>  6 Abilene  2000     6   156 13910000  66900      780       6.6 2000.417
#>  7 Abilene  2000     7   152 12635000  73500      742       6.2 2000.500
#>  8 Abilene  2000     8   131 10710000  75000      765       6.4 2000.583
#>  9 Abilene  2000     9   104  7615000  64500      771       6.5 2000.667
#> 10 Abilene  2000    10   101  7040000  59300      764       6.6 2000.750
#> # ... with 8,592 more rows
```
…
